<define-tag pagetitle>DLA-2669-1 libxml2</define-tag>
<define-tag report_date>2021-5-30</define-tag>
<define-tag secrefs>CVE-2021-3541</define-tag>
<define-tag packages>libxml2</define-tag>
<define-tag isvulnerable>yes</define-tag>
<define-tag fixed>yes</define-tag>
<define-tag fixed-section>no</define-tag>

#use wml::debian::security

