<define-tag pagetitle>DLA-2387-2 firefox-esr</define-tag>
<define-tag report_date>2020-09-30</define-tag>
<define-tag packages>firefox-esr</define-tag>
<define-tag isvulnerable>yes</define-tag>
<define-tag fixed>yes</define-tag>
<define-tag fixed-section>no</define-tag>

#use wml::debian::security

