<define-tag pagetitle>DLA-1436-1 gosa</define-tag>
<define-tag report_date>2018-7-20</define-tag>
<define-tag secrefs>CVE-2018-1000528 Bug#902723</define-tag>
<define-tag packages>gosa</define-tag>
<define-tag isvulnerable>yes</define-tag>
<define-tag fixed>yes</define-tag>
<define-tag fixed-section>no</define-tag>

#use wml::debian::security

