<define-tag pagetitle>DSA-4379-1 golang-1.7</define-tag>
<define-tag report_date>2019-2-01</define-tag>
<define-tag secrefs>CVE-2018-7187 CVE-2019-6486</define-tag>
<define-tag packages>golang-1.7</define-tag>
<define-tag isvulnerable>yes</define-tag>
<define-tag fixed>yes</define-tag>
<define-tag fixed-section>no</define-tag>

#use wml::debian::security



</dl>
