<define-tag pagetitle>DLA-1666-1 freerdp</define-tag>
<define-tag report_date>2019-2-9</define-tag>
<define-tag secrefs>CVE-2018-8786 CVE-2018-8787 CVE-2018-8788 CVE-2018-8789</define-tag>
<define-tag packages>freerdp</define-tag>
<define-tag isvulnerable>yes</define-tag>
<define-tag fixed>yes</define-tag>
<define-tag fixed-section>no</define-tag>

#use wml::debian::security

