<define-tag pagetitle>DLA-1729-1 wireshark</define-tag>
<define-tag report_date>2019-3-25</define-tag>
<define-tag secrefs>CVE-2017-9344 CVE-2017-9349 CVE-2019-9209</define-tag>
<define-tag packages>wireshark</define-tag>
<define-tag isvulnerable>yes</define-tag>
<define-tag fixed>yes</define-tag>
<define-tag fixed-section>no</define-tag>

#use wml::debian::security

