<define-tag pagetitle>DLA-536-1 wget</define-tag>
<define-tag report_date>2016-6-30</define-tag>
<define-tag secrefs>CVE-2016-4971 Bug#827003</define-tag>
<define-tag packages>wget</define-tag>
<define-tag isvulnerable>yes</define-tag>
<define-tag fixed>yes</define-tag>
<define-tag fixed-section>no</define-tag>

#use wml::debian::security

