<define-tag pagetitle>DLA-593-1 nettle</define-tag>
<define-tag report_date>2016-8-11</define-tag>
<define-tag secrefs>CVE-2016-6489 Bug#832983</define-tag>
<define-tag packages>nettle</define-tag>
<define-tag isvulnerable>yes</define-tag>
<define-tag fixed>yes</define-tag>
<define-tag fixed-section>no</define-tag>

#use wml::debian::security

